<?xml version="1.0" encoding="UTF-8"?>
<glyph name="omicrontonos" format="2">
	<advance width="575"/>
	<unicode hex="03CC"/>
	<outline>
		<component base="omicron"/>
		<component base="tonos" xOffset="318"/>
	</outline>
</glyph>
