<?xml version="1.0" encoding="UTF-8"?>
<glyph name="parenright" format="2">
	<advance width="575"/>
	<unicode hex="0029"/>
	<outline>
		<contour>
			<point x="44" y="-127" type="curve" smooth="yes"/>
			<point x="40" y="-153" type="line" smooth="yes"/>
			<point x="37" y="-170"/>
			<point x="45" y="-178"/>
			<point x="61" y="-178" type="curve" smooth="yes"/>
			<point x="291" y="-178"/>
			<point x="464" y="130"/>
			<point x="464" y="394" type="curve" smooth="yes"/>
			<point x="464" y="600"/>
			<point x="362" y="750"/>
			<point x="208" y="750" type="curve" smooth="yes"/>
			<point x="192" y="750"/>
			<point x="182" y="742"/>
			<point x="179" y="725" type="curve" smooth="yes"/>
			<point x="175" y="699" type="line" smooth="yes"/>
			<point x="172" y="682"/>
			<point x="179" y="674"/>
			<point x="196" y="674" type="curve" smooth="yes"/>
			<point x="306" y="674"/>
			<point x="378" y="554"/>
			<point x="378" y="388" type="curve" smooth="yes"/>
			<point x="378" y="176"/>
			<point x="252" y="-102"/>
			<point x="73" y="-102" type="curve" smooth="yes"/>
			<point x="56" y="-102"/>
			<point x="47" y="-110"/>
		</contour>
	</outline>
</glyph>
