<?xml version="1.0" encoding="UTF-8"?>
<glyph name="uni2547" format="2">
	<advance width="575"/>
	<unicode hex="2547"/>
	<outline>
		<contour>
			<point x="-21" y="368" type="line"/>
			<point x="-21" y="282" type="line"/>
			<point x="596" y="282" type="line"/>
			<point x="596" y="368" type="line"/>
		</contour>
		<contour>
			<point x="244" y="900" type="line"/>
			<point x="244" y="325" type="line"/>
			<point x="330" y="325" type="line"/>
			<point x="330" y="900" type="line"/>
		</contour>
		<contour>
			<point x="266" y="325" type="line"/>
			<point x="266" y="-250" type="line"/>
			<point x="308" y="-250" type="line"/>
			<point x="308" y="325" type="line"/>
		</contour>
	</outline>
</glyph>
