<?xml version="1.0" encoding="UTF-8"?>
<glyph name="V" format="2">
	<advance width="575"/>
	<unicode hex="0056"/>
	<anchor x="248" y="0" name="bottom"/>
	<anchor x="359" y="700" name="top"/>
	<outline>
		<contour>
			<point x="383" y="79" type="curve" smooth="yes"/>
			<point x="625" y="672" type="line" smooth="yes"/>
			<point x="633" y="689"/>
			<point x="625" y="700"/>
			<point x="608" y="700" type="curve" smooth="yes"/>
			<point x="572" y="700" type="line" smooth="yes"/>
			<point x="557" y="700"/>
			<point x="547" y="693"/>
			<point x="541" y="678" type="curve"/>
			<point x="302" y="93" type="line"/>
			<point x="295" y="75"/>
			<point x="276" y="66"/>
			<point x="259" y="66" type="curve" smooth="yes"/>
			<point x="242" y="66"/>
			<point x="225" y="75"/>
			<point x="224" y="93" type="curve"/>
			<point x="170" y="678" type="line"/>
			<point x="169" y="693"/>
			<point x="160" y="700"/>
			<point x="145" y="700" type="curve" smooth="yes"/>
			<point x="110" y="700" type="line" smooth="yes"/>
			<point x="92" y="700"/>
			<point x="83" y="689"/>
			<point x="84" y="672" type="curve" smooth="yes"/>
			<point x="138" y="79" type="line" smooth="yes"/>
			<point x="144" y="21"/>
			<point x="194" y="-10"/>
			<point x="253" y="-10" type="curve" smooth="yes"/>
			<point x="312" y="-10"/>
			<point x="360" y="21"/>
		</contour>
	</outline>
</glyph>
