<?xml version="1.0" encoding="UTF-8"?>
<glyph name="bracketright" format="2">
	<advance width="575"/>
	<unicode hex="005D"/>
	<outline>
		<contour>
			<point x="400" y="750" type="curve" smooth="yes"/>
			<point x="105" y="750" type="line" smooth="yes"/>
			<point x="89" y="750"/>
			<point x="80" y="742"/>
			<point x="80" y="725" type="curve" smooth="yes"/>
			<point x="80" y="699" type="line" smooth="yes"/>
			<point x="80" y="683"/>
			<point x="89" y="674"/>
			<point x="105" y="674" type="curve" smooth="yes"/>
			<point x="340" y="674" type="line"/>
			<point x="340" y="-102" type="line"/>
			<point x="105" y="-102" type="line" smooth="yes"/>
			<point x="89" y="-102"/>
			<point x="80" y="-110"/>
			<point x="80" y="-127" type="curve" smooth="yes"/>
			<point x="80" y="-153" type="line" smooth="yes"/>
			<point x="80" y="-170"/>
			<point x="89" y="-178"/>
			<point x="105" y="-178" type="curve" smooth="yes"/>
			<point x="400" y="-178" type="line" smooth="yes"/>
			<point x="417" y="-178"/>
			<point x="425" y="-169"/>
			<point x="425" y="-153" type="curve" smooth="yes"/>
			<point x="425" y="725" type="line" smooth="yes"/>
			<point x="425" y="742"/>
			<point x="416" y="750"/>
		</contour>
	</outline>
</glyph>
