<?xml version="1.0" encoding="UTF-8"?>
<glyph name="C" format="2">
	<advance width="575"/>
	<unicode hex="0043"/>
	<anchor x="328" y="0" name="bottom"/>
	<anchor x="288" y="700" name="top"/>
	<outline>
		<contour>
			<point x="491" y="53" type="curve" smooth="yes"/>
			<point x="481" y="77" type="line"/>
			<point x="475" y="92"/>
			<point x="464" y="97"/>
			<point x="449" y="91" type="curve" smooth="yes"/>
			<point x="405" y="75"/>
			<point x="369" y="68"/>
			<point x="338" y="68" type="curve" smooth="yes"/>
			<point x="259" y="68"/>
			<point x="171" y="114"/>
			<point x="171" y="310" type="curve" smooth="yes"/>
			<point x="171" y="390" type="line" smooth="yes"/>
			<point x="171" y="586"/>
			<point x="259" y="632"/>
			<point x="338" y="632" type="curve" smooth="yes"/>
			<point x="369" y="632"/>
			<point x="405" y="625"/>
			<point x="449" y="609" type="curve" smooth="yes"/>
			<point x="464" y="603"/>
			<point x="475" y="608"/>
			<point x="481" y="623" type="curve" smooth="yes"/>
			<point x="491" y="647" type="line" smooth="yes"/>
			<point x="497" y="662"/>
			<point x="493" y="674"/>
			<point x="478" y="680" type="curve" smooth="yes"/>
			<point x="431" y="700"/>
			<point x="385" y="710"/>
			<point x="340" y="710" type="curve" smooth="yes"/>
			<point x="222" y="710"/>
			<point x="85" y="640"/>
			<point x="85" y="390" type="curve" smooth="yes"/>
			<point x="85" y="310" type="line" smooth="yes"/>
			<point x="85" y="60"/>
			<point x="222" y="-10"/>
			<point x="340" y="-10" type="curve" smooth="yes"/>
			<point x="385" y="-10"/>
			<point x="431" y="0"/>
			<point x="478" y="20" type="curve" smooth="yes"/>
			<point x="493" y="26"/>
			<point x="497" y="38"/>
		</contour>
	</outline>
</glyph>
