<?xml version="1.0" encoding="UTF-8"?>
<glyph name="Tcaron" format="2">
	<advance width="575"/>
	<unicode hex="0164"/>
	<outline>
		<component base="T"/>
		<component base="caron" yOffset="200"/>
	</outline>
</glyph>
