<?xml version="1.0" encoding="UTF-8"?>
<glyph name="uni04E3" format="2">
	<advance width="575"/>
	<unicode hex="04E3"/>
	<outline>
		<component base="uni0438"/>
		<component base="macron" xOffset="1" yOffset="20"/>
	</outline>
</glyph>
