<?xml version="1.0" encoding="UTF-8"?>
<glyph name="uni1EB0" format="2">
	<advance width="575"/>
	<unicode hex="1EB0"/>
	<outline>
		<component base="A"/>
		<component base="breve" xOffset="35" yOffset="200"/>
		<component base="grave" xOffset="95" yOffset="405"/>
	</outline>
</glyph>
